{
    "telemetry.telemetryLevel": "off",
    "code-runner.enableAppInsights": false,
    "dotnetAcquisitionExtension.enableTelemetry": false,
    "editor.fontSize": 16,
    "editor.fontFamily": "'Monaco', 'Droid Sans Mono', 'monospace', monospace, 'Droid Sans Fallback'",
    "editor.minimap.enabled": false,
    "dart.devToolsBrowser": "brave",
    "liveServer.settings.CustomBrowser": "firefox",
    "files.autoSave": "afterDelay",
    "security.workspace.trust.enabled": false,
    "code-runner.executorMap": {
        "javascript": "node",
        // "java": "cd $dir && javac $fileName && java $fileNameWithoutExt",
        "c": "cd $dir && gcc $fileName -o $fileNameWithoutExt && $dir$fileNameWithoutExt",
        "cpp": "cd $dir && g++ $fileName -o $fileNameWithoutExt && $dir$fileNameWithoutExt",
        "objective-c": "cd $dir && gcc -framework Cocoa $fileName -o $fileNameWithoutExt && $dir$fileNameWithoutExt",
        "php": "php",
        "python": "python3",
        "perl": "perl",
        "perl6": "perl6",
        "ruby": "ruby",
        "go": "go run",
        "lua": "lua",
        "groovy": "groovy",
        "powershell": "powershell -ExecutionPolicy ByPass -File",
        "bat": "cmd /c",
        "shellscript": "bash",
        "fsharp": "fsi",
        "csharp": "scriptcs",
        "vbscript": "cscript //Nologo",
        "typescript": "ts-node",
        "coffeescript": "coffee",
        "scala": "scala",
        "swift": "swift",
        "julia": "julia",
        "crystal": "crystal",
        "ocaml": "ocaml",
        "r": "Rscript",
        "applescript": "osascript",
        "clojure": "lein exec",
        "haxe": "haxe --cwd $dirWithoutTrailingSlash --run $fileNameWithoutExt",
        "rust": "cd $dir && rustc $fileName && $dir$fileNameWithoutExt",
        "racket": "racket",
        "scheme": "csi -script",
        "ahk": "autohotkey",
        "autoit": "autoit3",
        "dart": "dart",
        "pascal": "cd $dir && fpc $fileName && $dir$fileNameWithoutExt",
        "d": "cd $dir && dmd $fileName && $dir$fileNameWithoutExt",
        "haskell": "runhaskell",
        "nim": "nim compile --verbosity:0 --hints:off --run",
        "lisp": "sbcl --script",
        "kit": "kitc --run",
        "v": "v run",
        "sass": "sass --style expanded",
        "scss": "scss --style expanded",
        "less": "cd $dir && lessc $fileName $fileNameWithoutExt.css",
        "FortranFreeForm": "cd $dir && gfortran $fileName -o $fileNameWithoutExt && $dir$fileNameWithoutExt",
        "fortran-modern": "cd $dir && gfortran $fileName -o $fileNameWithoutExt && $dir$fileNameWithoutExt",
        "fortran_fixed-form": "cd $dir && gfortran $fileName -o $fileNameWithoutExt && $dir$fileNameWithoutExt",
        "fortran": "cd $dir && gfortran $fileName -o $fileNameWithoutExt && $dir$fileNameWithoutExt"
    },
    "code-runner.saveAllFilesBeforeRun": true,
    "code-runner.ignoreSelection": true,
    "code-runner.clearPreviousOutput": true,
    "code-runner.runInTerminal": true,
    "workbench.startupEditor": "none",
    "terminal.integrated.defaultProfile.linux": "zsh",
    "editor.tabSize": 2,
    "window.restoreWindows": "none",
    "editor.formatOnSave": true,
    "terminal.integrated.fontFamily": "Monaco",
    "terminal.integrated.enableMultiLinePasteWarning": "never",
    "editor.unicodeHighlight.ambiguousCharacters": false,
    "editor.stickyScroll.scrollWithEditor": false,
    "workbench.tree.enableStickyScroll": false,
    "editor.stickyScroll.enabled": false,
    "editor.rulers": [
        80,
        120
    ],
    "workbench.iconTheme": "material-icon-theme",
    "material-icon-theme.files.customClones": [
        {
            "name": "Install",
            "base": "readme",
            "color": "red-500",
            "fileNames": [
                "install.org"
            ]
        }
    ],
    "material-icon-theme.files.associations": {
        "README.org": "Readme",
        "TODO.org": "Todo",
        "CHANGELOG.org": "Changelog"
    },
    "diffEditor.ignoreTrimWhitespace": false,
    "explorer.confirmDelete": false
}